{"frames": {

"AttemptBoneComplete.png":
{
	"frame": {"x":1612,"y":1009,"w":48,"h":46},
	"rotated": false,
	"trimmed": false,
	"spriteSourceSize": {"x":0,"y":0,"w":48,"h":46},
	"sourceSize": {"w":48,"h":46},
	"pivot": {"x":0.5,"y":0.5}
},
"AttemptBoneInactive.png":
{
	"frame": {"x":1479,"y":1940,"w":48,"h":46},
	"rotated": false,
	"trimmed": false,
	"spriteSourceSize": {"x":0,"y":0,"w":48,"h":46},
	"sourceSize": {"w":48,"h":46},
	"pivot": {"x":0.5,"y":0.5}
},
"AttemptDistanceBubbleBack.png":
{
	"frame": {"x":1404,"y":321,"w":290,"h":165},
	"rotated": false,
	"trimmed": false,
	"spriteSourceSize": {"x":0,"y":0,"w":290,"h":165},
	"sourceSize": {"w":290,"h":165},
	"pivot": {"x":0.5,"y":0.5}
},
"DistanceBack.png":
{
	"frame": {"x":1393,"y":1687,"w":147,"h":83},
	"rotated": false,
	"trimmed": false,
	"spriteSourceSize": {"x":0,"y":0,"w":147,"h":83},
	"sourceSize": {"w":147,"h":83},
	"pivot": {"x":0.5,"y":0.5}
},
"FoulThrowBubbleBack.png":
{
	"frame": {"x":1320,"y":939,"w":290,"h":146},
	"rotated": false,
	"trimmed": false,
	"spriteSourceSize": {"x":0,"y":0,"w":290,"h":146},
	"sourceSize": {"w":290,"h":146},
	"pivot": {"x":0.5,"y":0.5}
},
"GOBack.png":
{
	"frame": {"x":2,"y":592,"w":608,"h":584},
	"rotated": false,
	"trimmed": false,
	"spriteSourceSize": {"x":0,"y":0,"w":608,"h":584},
	"sourceSize": {"w":608,"h":584},
	"pivot": {"x":0.5,"y":0.5}
},
"GameOverBestStars.png":
{
	"frame": {"x":1000,"y":1410,"w":426,"h":101},
	"rotated": false,
	"trimmed": false,
	"spriteSourceSize": {"x":0,"y":0,"w":426,"h":101},
	"sourceSize": {"w":426,"h":101},
	"pivot": {"x":0.5,"y":0.5}
},
"GameOverStarsCollectedIcon.png":
{
	"frame": {"x":1612,"y":926,"w":80,"h":81},
	"rotated": false,
	"trimmed": false,
	"spriteSourceSize": {"x":0,"y":0,"w":80,"h":81},
	"sourceSize": {"w":80,"h":81},
	"pivot": {"x":0.5,"y":0.5}
},
"HTPBack1b.png":
{
	"frame": {"x":2,"y":1620,"w":574,"h":337},
	"rotated": false,
	"trimmed": false,
	"spriteSourceSize": {"x":0,"y":0,"w":574,"h":337},
	"sourceSize": {"w":574,"h":337},
	"pivot": {"x":0.5,"y":0.5}
},
"HTPHand.png":
{
	"frame": {"x":1493,"y":488,"w":163,"h":129},
	"rotated": false,
	"trimmed": false,
	"spriteSourceSize": {"x":0,"y":0,"w":163,"h":129},
	"sourceSize": {"w":163,"h":129},
	"pivot": {"x":0.5,"y":0.5}
},
"HighlightBlue.png":
{
	"frame": {"x":785,"y":528,"w":706,"h":89},
	"rotated": false,
	"trimmed": false,
	"spriteSourceSize": {"x":0,"y":0,"w":706,"h":89},
	"sourceSize": {"w":706,"h":89},
	"pivot": {"x":0.5,"y":0.5}
},
"HighlightWhite.png":
{
	"frame": {"x":612,"y":945,"w":706,"h":89},
	"rotated": false,
	"trimmed": false,
	"spriteSourceSize": {"x":0,"y":0,"w":706,"h":89},
	"sourceSize": {"w":706,"h":89},
	"pivot": {"x":0.5,"y":0.5}
},
"HighscoresBack.png":
{
	"frame": {"x":2,"y":2,"w":781,"h":588},
	"rotated": false,
	"trimmed": false,
	"spriteSourceSize": {"x":0,"y":0,"w":781,"h":588},
	"sourceSize": {"w":781,"h":588},
	"pivot": {"x":0.5,"y":0.5}
},
"LockedOpen.png":
{
	"frame": {"x":1146,"y":1036,"w":164,"h":173},
	"rotated": false,
	"trimmed": false,
	"spriteSourceSize": {"x":0,"y":0,"w":164,"h":173},
	"sourceSize": {"w":164,"h":173},
	"pivot": {"x":0.5,"y":0.5}
},
"LockedShadow.png":
{
	"frame": {"x":612,"y":592,"w":162,"h":24},
	"rotated": false,
	"trimmed": false,
	"spriteSourceSize": {"x":0,"y":0,"w":162,"h":24},
	"sourceSize": {"w":162,"h":24},
	"pivot": {"x":0.5,"y":0.5}
},
"LockedShut.png":
{
	"frame": {"x":845,"y":1629,"w":164,"h":173},
	"rotated": false,
	"trimmed": false,
	"spriteSourceSize": {"x":0,"y":0,"w":164,"h":173},
	"sourceSize": {"w":164,"h":173},
	"pivot": {"x":0.5,"y":0.5}
},
"PersonalBestBack.png":
{
	"frame": {"x":2,"y":1959,"w":380,"h":59},
	"rotated": false,
	"trimmed": false,
	"spriteSourceSize": {"x":0,"y":0,"w":380,"h":59},
	"sourceSize": {"w":380,"h":59},
	"pivot": {"x":0.5,"y":0.5}
},
"SelectShadow.png":
{
	"frame": {"x":578,"y":1902,"w":276,"h":40},
	"rotated": false,
	"trimmed": false,
	"spriteSourceSize": {"x":0,"y":0,"w":276,"h":40},
	"sourceSize": {"w":276,"h":40},
	"pivot": {"x":0.5,"y":0.5}
},
"SelectUserBack.png":
{
	"frame": {"x":785,"y":2,"w":617,"h":524},
	"rotated": false,
	"trimmed": false,
	"spriteSourceSize": {"x":0,"y":0,"w":617,"h":524},
	"sourceSize": {"w":617,"h":524},
	"pivot": {"x":0.5,"y":0.5}
},
"SelectUserNameBack.png":
{
	"frame": {"x":1227,"y":1818,"w":298,"h":59},
	"rotated": false,
	"trimmed": false,
	"spriteSourceSize": {"x":0,"y":0,"w":298,"h":59},
	"sourceSize": {"w":298,"h":59},
	"pivot": {"x":0.5,"y":0.5}
},
"SelectUserPic_mask.png":
{
	"frame": {"x":1544,"y":786,"w":138,"h":138},
	"rotated": false,
	"trimmed": false,
	"spriteSourceSize": {"x":0,"y":0,"w":138,"h":138},
	"sourceSize": {"w":138,"h":138},
	"pivot": {"x":0.5,"y":0.5}
},
"SelectUserSurround.png":
{
	"frame": {"x":1544,"y":619,"w":165,"h":165},
	"rotated": false,
	"trimmed": false,
	"spriteSourceSize": {"x":0,"y":0,"w":165,"h":165},
	"sourceSize": {"w":165,"h":165},
	"pivot": {"x":0.5,"y":0.5}
},
"SelectUserTick.png":
{
	"frame": {"x":1584,"y":1418,"w":118,"h":118},
	"rotated": false,
	"trimmed": false,
	"spriteSourceSize": {"x":0,"y":0,"w":118,"h":118},
	"sourceSize": {"w":118,"h":118},
	"pivot": {"x":0.5,"y":0.5}
},
"StarsCollectedBack.png":
{
	"frame": {"x":1542,"y":1671,"w":153,"h":81},
	"rotated": false,
	"trimmed": false,
	"spriteSourceSize": {"x":0,"y":0,"w":153,"h":81},
	"sourceSize": {"w":153,"h":81},
	"pivot": {"x":0.5,"y":0.5}
},
"StarsTotalBack.png":
{
	"frame": {"x":1542,"y":1754,"w":80,"h":81},
	"rotated": false,
	"trimmed": false,
	"spriteSourceSize": {"x":0,"y":0,"w":80,"h":81},
	"sourceSize": {"w":80,"h":81},
	"pivot": {"x":0.5,"y":0.5}
},
"StoryPanel1.png":
{
	"frame": {"x":1151,"y":619,"w":391,"h":318},
	"rotated": false,
	"trimmed": false,
	"spriteSourceSize": {"x":0,"y":0,"w":391,"h":318},
	"sourceSize": {"w":391,"h":318},
	"pivot": {"x":0.5,"y":0.5}
},
"StoryPanel2.png":
{
	"frame": {"x":627,"y":1036,"w":517,"h":289},
	"rotated": false,
	"trimmed": false,
	"spriteSourceSize": {"x":0,"y":0,"w":517,"h":289},
	"sourceSize": {"w":517,"h":289},
	"pivot": {"x":0.5,"y":0.5}
},
"StoryPanel3.png":
{
	"frame": {"x":627,"y":1327,"w":371,"h":300},
	"rotated": false,
	"trimmed": false,
	"spriteSourceSize": {"x":0,"y":0,"w":371,"h":300},
	"sourceSize": {"w":371,"h":300},
	"pivot": {"x":0.5,"y":0.5}
},
"StoryPanel4.png":
{
	"frame": {"x":612,"y":619,"w":537,"h":324},
	"rotated": false,
	"trimmed": false,
	"spriteSourceSize": {"x":0,"y":0,"w":537,"h":324},
	"sourceSize": {"w":537,"h":324},
	"pivot": {"x":0.5,"y":0.5}
},
"SwitchUserPanelBack.png":
{
	"frame": {"x":2,"y":1178,"w":623,"h":440},
	"rotated": false,
	"trimmed": false,
	"spriteSourceSize": {"x":0,"y":0,"w":623,"h":440},
	"sourceSize": {"w":623,"h":440},
	"pivot": {"x":0.5,"y":0.5}
},
"ThrowAttemptBack.png":
{
	"frame": {"x":1428,"y":1418,"w":154,"h":106},
	"rotated": false,
	"trimmed": false,
	"spriteSourceSize": {"x":0,"y":0,"w":154,"h":106},
	"sourceSize": {"w":154,"h":106},
	"pivot": {"x":0.5,"y":0.5}
},
"ThrowHudBack.png":
{
	"frame": {"x":1146,"y":1256,"w":516,"h":75},
	"rotated": false,
	"trimmed": false,
	"spriteSourceSize": {"x":0,"y":0,"w":516,"h":75},
	"sourceSize": {"w":516,"h":75},
	"pivot": {"x":0.5,"y":0.5}
},
"UserLoggedInBack.png":
{
	"frame": {"x":1312,"y":1087,"w":385,"h":106},
	"rotated": false,
	"trimmed": false,
	"spriteSourceSize": {"x":0,"y":0,"w":385,"h":106},
	"sourceSize": {"w":385,"h":106},
	"pivot": {"x":0.5,"y":0.5}
},
"WFTitle.png":
{
	"frame": {"x":1000,"y":1333,"w":476,"h":75},
	"rotated": false,
	"trimmed": false,
	"spriteSourceSize": {"x":0,"y":0,"w":476,"h":75},
	"sourceSize": {"w":476,"h":75},
	"pivot": {"x":0.5,"y":0.5}
},
"WhiteLeftButton.png":
{
	"frame": {"x":1424,"y":1940,"w":53,"h":53},
	"rotated": false,
	"trimmed": false,
	"spriteSourceSize": {"x":0,"y":0,"w":53,"h":53},
	"sourceSize": {"w":53,"h":53},
	"pivot": {"x":0.5,"y":0.5}
},
"WhiteRightButton.png":
{
	"frame": {"x":1648,"y":1538,"w":53,"h":53},
	"rotated": false,
	"trimmed": false,
	"spriteSourceSize": {"x":0,"y":0,"w":53,"h":53},
	"sourceSize": {"w":53,"h":53},
	"pivot": {"x":0.5,"y":0.5}
},
"WindSpeedBack.png":
{
	"frame": {"x":1478,"y":1333,"w":212,"h":83},
	"rotated": false,
	"trimmed": false,
	"spriteSourceSize": {"x":0,"y":0,"w":212,"h":83},
	"sourceSize": {"w":212,"h":83},
	"pivot": {"x":0.5,"y":0.5}
},
"collectible_star.png":
{
	"frame": {"x":1518,"y":1538,"w":128,"h":131},
	"rotated": false,
	"trimmed": false,
	"spriteSourceSize": {"x":0,"y":0,"w":128,"h":131},
	"sourceSize": {"w":128,"h":131},
	"pivot": {"x":0.5,"y":0.5}
},
"collectible_sunburst.png":
{
	"frame": {"x":1404,"y":2,"w":315,"h":317},
	"rotated": false,
	"trimmed": false,
	"spriteSourceSize": {"x":0,"y":0,"w":315,"h":317},
	"sourceSize": {"w":315,"h":317},
	"pivot": {"x":0.5,"y":0.5}
},
"collectible_tab.png":
{
	"frame": {"x":578,"y":1629,"w":265,"h":271},
	"rotated": false,
	"trimmed": false,
	"spriteSourceSize": {"x":0,"y":0,"w":265,"h":271},
	"sourceSize": {"w":265,"h":271},
	"pivot": {"x":0.5,"y":0.5}
},
"go_newbest_ar.png":
{
	"frame": {"x":384,"y":1959,"w":380,"h":59},
	"rotated": false,
	"trimmed": false,
	"spriteSourceSize": {"x":0,"y":0,"w":380,"h":59},
	"sourceSize": {"w":380,"h":59},
	"pivot": {"x":0.5,"y":0.5}
},
"go_newbest_cn.png":
{
	"frame": {"x":1312,"y":1195,"w":380,"h":59},
	"rotated": false,
	"trimmed": false,
	"spriteSourceSize": {"x":0,"y":0,"w":380,"h":59},
	"sourceSize": {"w":380,"h":59},
	"pivot": {"x":0.5,"y":0.5}
},
"go_newbest_de.png":
{
	"frame": {"x":1000,"y":1513,"w":380,"h":59},
	"rotated": false,
	"trimmed": false,
	"spriteSourceSize": {"x":0,"y":0,"w":380,"h":59},
	"sourceSize": {"w":380,"h":59},
	"pivot": {"x":0.5,"y":0.5}
},
"go_newbest_en.png":
{
	"frame": {"x":1011,"y":1574,"w":380,"h":59},
	"rotated": false,
	"trimmed": false,
	"spriteSourceSize": {"x":0,"y":0,"w":380,"h":59},
	"sourceSize": {"w":380,"h":59},
	"pivot": {"x":0.5,"y":0.5}
},
"go_newbest_es.png":
{
	"frame": {"x":1011,"y":1635,"w":380,"h":59},
	"rotated": false,
	"trimmed": false,
	"spriteSourceSize": {"x":0,"y":0,"w":380,"h":59},
	"sourceSize": {"w":380,"h":59},
	"pivot": {"x":0.5,"y":0.5}
},
"go_newbest_fr.png":
{
	"frame": {"x":1011,"y":1696,"w":380,"h":59},
	"rotated": false,
	"trimmed": false,
	"spriteSourceSize": {"x":0,"y":0,"w":380,"h":59},
	"sourceSize": {"w":380,"h":59},
	"pivot": {"x":0.5,"y":0.5}
},
"go_newbest_it.png":
{
	"frame": {"x":1011,"y":1757,"w":380,"h":59},
	"rotated": false,
	"trimmed": false,
	"spriteSourceSize": {"x":0,"y":0,"w":380,"h":59},
	"sourceSize": {"w":380,"h":59},
	"pivot": {"x":0.5,"y":0.5}
},
"go_newbest_iw.png":
{
	"frame": {"x":845,"y":1818,"w":380,"h":59},
	"rotated": false,
	"trimmed": false,
	"spriteSourceSize": {"x":0,"y":0,"w":380,"h":59},
	"sourceSize": {"w":380,"h":59},
	"pivot": {"x":0.5,"y":0.5}
},
"go_newbest_pl.png":
{
	"frame": {"x":856,"y":1879,"w":380,"h":59},
	"rotated": false,
	"trimmed": false,
	"spriteSourceSize": {"x":0,"y":0,"w":380,"h":59},
	"sourceSize": {"w":380,"h":59},
	"pivot": {"x":0.5,"y":0.5}
},
"go_newbest_pt.png":
{
	"frame": {"x":856,"y":1940,"w":380,"h":59},
	"rotated": false,
	"trimmed": false,
	"spriteSourceSize": {"x":0,"y":0,"w":380,"h":59},
	"sourceSize": {"w":380,"h":59},
	"pivot": {"x":0.5,"y":0.5}
},
"go_newbest_ru.png":
{
	"frame": {"x":1238,"y":1879,"w":380,"h":59},
	"rotated": false,
	"trimmed": false,
	"spriteSourceSize": {"x":0,"y":0,"w":380,"h":59},
	"sourceSize": {"w":380,"h":59},
	"pivot": {"x":0.5,"y":0.5}
},
"htp_bone.png":
{
	"frame": {"x":1664,"y":1256,"w":33,"h":75},
	"rotated": false,
	"trimmed": false,
	"spriteSourceSize": {"x":0,"y":0,"w":33,"h":75},
	"sourceSize": {"w":33,"h":75},
	"pivot": {"x":0.5,"y":0.5}
},
"htp_fence.png":
{
	"frame": {"x":1393,"y":1526,"w":123,"h":159},
	"rotated": false,
	"trimmed": false,
	"spriteSourceSize": {"x":0,"y":0,"w":123,"h":159},
	"sourceSize": {"w":123,"h":159},
	"pivot": {"x":0.5,"y":0.5}
},
"htp_pippet_active.png":
{
	"frame": {"x":1146,"y":1211,"w":15,"h":15},
	"rotated": false,
	"trimmed": false,
	"spriteSourceSize": {"x":0,"y":0,"w":15,"h":15},
	"sourceSize": {"w":15,"h":15},
	"pivot": {"x":0.5,"y":0.5}
},
"htp_pippet_inactive.png":
{
	"frame": {"x":1404,"y":488,"w":15,"h":15},
	"rotated": false,
	"trimmed": false,
	"spriteSourceSize": {"x":0,"y":0,"w":15,"h":15},
	"sourceSize": {"w":15,"h":15},
	"pivot": {"x":0.5,"y":0.5}
},
"htp_trampoline.png":
{
	"frame": {"x":1238,"y":1940,"w":184,"h":75},
	"rotated": false,
	"trimmed": false,
	"spriteSourceSize": {"x":0,"y":0,"w":184,"h":75},
	"sourceSize": {"w":184,"h":75},
	"pivot": {"x":0.5,"y":0.5}
}},
"meta": {
	"app": "http://www.codeandweb.com/texturepacker",
	"version": "1.0",
	"image": "menus.png",
	"format": "RGBA8888",
	"size": {"w":1721,"h":2020},
	"scale": "1",
	"smartupdate": "$TexturePacker:SmartUpdate:68f51757263402da732a41fced34c519:5efca1cc288e236827964d29214283d1:ba97089b2b5ed5b997b0872b1d53c1dd$"
}
}
